Test_Results/APB_RAM.vcd
$date
Fri Jul  7 02:47:30 2023
$end
$version
Riviera-PRO Version 2022.04.117.8517
$end
$timescale
1 ns
$end

$scope module tb_top $end

$scope module rif $end
$var reg 1 ! pclk $end
$var reg 1 " presetn $end
$var reg 1 # psel $end
$var reg 1 $ penable $end
$var reg 1 % pwrite $end
$var reg 32 & pwdata [31:0] $end
$var reg 32 ' paddr [31:0] $end
$var reg 32 ( prdata [31:0] $end
$var reg 1 ) pready $end
$var reg 1 * pslverr $end
$upscope $end


$scope module dut $end
$var wire 1 + pclk $end
$var wire 1 , presetn $end
$var wire 1 - psel $end
$var wire 1 . penable $end
$var wire 1 / pwrite $end
$var wire 32 0 paddr [31:0] $end
$var wire 32 1 pwdata [31:0] $end
$var reg 32 2 prdata [31:0] $end
$var reg 1 3 pready $end
$var reg 1 4 pslverr $end
$var integer 32 5 state $end
$var integer 32 6 next_state $end
$upscope $end

$upscope $end

$enddefinitions $end
$dumpvars
0!
0"
0#
0$
0%
b0 &
b0 '
bx (
x)
x*
0+
0,
0-
0.
0/
b0 0
b0 1
bx 2
x3
x4
b0 5
b0 6
$end
#10
1!
1+
b0 2
03
04
b0 (
0)
0*
#20
0!
0+
#30
1!
1+
#40
0!
0+
#50
1!
1+
#60
0!
0+
#70
1!
1+
#80
0!
0+
#90
1!
1+
1"
1,
#100
0!
0+
#110
1!
1+
b1 5
#120
0!
0+
#130
1!
1+
#140
0!
0+
#150
1!
1+
#160
0!
0+
#170
1!
1+
#180
0!
0+
#190
1!
1+
#200
0!
0+
#210
1!
1+
1#
1%
b101110 '
b10 &
b10 1
b101110 0
1/
1-
#220
0!
0+
#230
1!
1+
1$
b10 5
1.
#240
0!
0+
#250
1!
1+
b11 5
13
14
1)
1*
#260
0!
0+
#270
1!
1+
0$
0%
0#
b1 5
03
04
0)
0*
0-
0/
0.
#280
0!
0+
#290
1!
1+
#300
0!
0+
#310
1!
1+
1#
b100 '
b100 0
1-
#320
0!
0+
#330
1!
1+
1$
b10 5
13
1)
1.
#340
0!
0+
#350
1!
1+
b11 5
#360
0!
0+
#370
1!
1+
0$
0#
b1 5
03
0)
0-
0.
#380
0!
0+
#390
1!
1+
#400
0!
0+
#410
1!
1+
1#
b110 &
b11 '
b11 0
b110 1
1-
#420
0!
0+
#430
1!
1+
1$
b10 5
13
1)
1.
#440
0!
0+
#450
1!
1+
b11 5
#460
0!
0+
#470
1!
1+
0$
0#
b1 5
03
0)
0-
0.
#480
0!
0+
#490
1!
1+
#500
0!
0+
#510
1!
1+
1#
1%
b100 '
b101 &
b101 1
b100 0
1/
1-
#520
0!
0+
#530
1!
1+
1$
b10 5
13
1)
1.
#540
0!
0+
#550
1!
1+
b11 5
#560
0!
0+
#570
1!
1+
0#
0$
0%
b1 5
03
0)
0/
0.
0-
#580
0!
0+
#590
1!
1+
#600
0!
0+
#610
1!
1+
1#
1%
b11 &
b11 1
1/
1-
#620
0!
0+
#630
1!
1+
1$
b10 5
13
1)
1.
#640
0!
0+
#650
1!
1+
b11 5
#660
0!
0+
#670
1!
1+
0$
0#
0%
b1 5
03
0)
0/
0-
0.
#680
0!
0+
#690
1!
1+
#700
0!
0+
#710
1!
1+
1#
1%
b101 &
b101 1
1/
1-
#720
0!
0+
#730
1!
1+
1$
b10 5
13
1)
1.
#740
0!
0+
#750
1!
1+
b11 5
#760
0!
0+
#770
1!
1+
0#
0$
0%
b1 5
03
0)
0/
0.
0-
#780
0!
0+
#790
1!
1+
#800
0!
0+
#810
1!
1+
1#
b11 &
b11 '
b11 0
b11 1
1-
#820
0!
0+
#830
1!
1+
1$
b10 5
13
1)
1.
#840
0!
0+
#850
1!
1+
b11 5
#860
0!
0+
#870
1!
1+
0$
0#
b1 5
03
0)
0-
0.
#880
0!
0+
#890
1!
1+
#900
0!
0+
#910
1!
1+
1#
1%
b110101 '
b1001 &
b1001 1
b110101 0
1/
1-
#920
0!
0+
#930
1!
1+
1$
b10 5
1.
#940
0!
0+
#950
1!
1+
b11 5
13
14
1)
1*
#960
0!
0+
#970
1!
1+
0$
0%
0#
b1 5
03
04
0)
0*
0-
0/
0.
#980
0!
0+
#990
1!
1+
#1000
0!
0+
#1010
1!
1+
1#
b1011110 '
b100 &
b100 1
b1011110 0
1-
#1020
0!
0+
#1030
1!
1+
1$
b10 5
1.
#1040
0!
0+
#1050
1!
1+
b11 5
14
13
bx 2
1*
1)
bx (
#1060
0!
0+
#1070
1!
1+
0$
0#
b1 5
03
04
0)
0*
0-
0.
#1080
0!
0+
#1090
1!
1+
#1100
0!
0+
#1110
1!
1+
1#
b10 &
b10 '
b10 0
b10 1
1-
#1120
0!
0+
#1130
1!
1+
1$
b10 5
13
1)
1.
#1140
0!
0+
#1150
1!
1+
b0 2
b11 5
b0 (
#1160
0!
0+
#1170
1!
1+
0$
0#
b1 5
03
0)
0-
0.
#1180
0!
0+
#1190
1!
1+
#1200
0!
0+
#1210
1!
1+
1#
1%
b101 &
b101 1
1/
1-
#1220
0!
0+
#1230
1!
1+
1$
b10 5
13
1)
1.
#1240
0!
0+
#1250
1!
1+
b11 5
#1260
0!
0+
#1270
1!
1+
0#
0$
0%
b1 5
03
0)
0/
0.
0-
#1280
0!
0+
#1290
1!
1+
#1300
0!
0+
#1310
1!
1+
1#
1%
b11 &
b11 1
1/
1-
#1320
0!
0+
#1330
1!
1+
1$
b10 5
13
1)
1.
#1340
0!
0+
#1350
1!
1+
b11 5
#1360
0!
0+
#1370
1!
1+
0$
0#
0%
b1 5
03
0)
0/
0-
0.
#1380
0!
0+
#1390
1!
1+
#1400
0!
0+
#1410
1!
1+
1#
1%
1/
1-
#1420
0!
0+
#1430
1!
1+
1$
b10 5
13
1)
1.
#1440
0!
0+
#1450
1!
1+
b11 5
#1460
0!
0+
#1470
1!
1+
0$
0#
0%
b1 5
03
0)
0/
0-
0.
#1480
0!
0+
#1490
1!
1+
#1500
0!
0+
#1510
1!
1+
1#
1%
b101 &
b101 1
1/
1-
#1520
0!
0+
#1530
1!
1+
1$
b10 5
13
1)
1.
#1540
0!
0+
#1550
1!
1+
b11 5
#1560
0!
0+
#1570
1!
1+
0#
0$
0%
b1 5
03
0)
0/
0.
0-
#1580
0!
0+
#1590
1!
1+
#1600
0!
0+
#1610
1!
1+
1#
b100 &
b100 '
b100 0
b100 1
1-
#1620
0!
0+
#1630
1!
1+
1$
b10 5
13
1)
1.
#1640
0!
0+
#1650
1!
1+
b101 2
b11 5
b101 (
#1660
0!
0+
#1670
1!
1+
0$
0#
b1 5
03
0)
0-
0.
#1680
0!
0+
#1690
1!
1+
#1700
0!
0+
#1710
1!
1+
1#
1%
b110011 '
b110011 0
1/
1-
#1720
0!
0+
#1730
1!
1+
1$
b10 5
1.
#1740
0!
0+
#1750
1!
1+
b11 5
13
14
1)
1*
#1760
0!
0+
#1770
1!
1+
0$
0%
0#
b1 5
03
04
0)
0*
0-
0/
0.
#1780
0!
0+
#1790
1!
1+
#1800
0!
0+
#1810
1!
1+
1#
1%
b111001 '
b111 &
b111 1
b111001 0
1/
1-
#1820
0!
0+
#1830
1!
1+
1$
b10 5
1.
#1840
0!
0+
#1850
1!
1+
b11 5
13
14
1)
1*
#1860
0!
0+
#1870
1!
1+
0$
0%
0#
b1 5
03
04
0)
0*
0-
0/
0.
#1880
0!
0+
#1890
1!
1+
#1900
0!
0+
#1910
1!
1+
1#
1%
b10 '
b100 &
b100 1
b10 0
1/
1-
#1920
0!
0+
#1930
1!
1+
1$
b10 5
13
1)
1.
#1940
0!
0+
#1950
1!
1+
b11 5
#1960
0!
0+
#1970
1!
1+
0#
0$
0%
b1 5
03
0)
0/
0.
0-
#1980
0!
0+
#1990
1!
1+
#2000
0!
0+
#2010
1!
1+
1#
1%
b1000 &
b11 '
b11 0
b1000 1
1/
1-
#2020
0!
0+
#2030
1!
1+
1$
b10 5
13
1)
1.
#2040
0!
0+
#2050
1!
1+
b11 5
#2060
0!
0+
#2070
1!
1+
0$
0#
0%
b1 5
03
0)
0/
0-
0.
#2080
0!
0+
#2090
1!
1+
#2100
0!
0+
#2110
1!
1+
1#
b100 &
b10 '
b10 0
b100 1
1-
#2120
0!
0+
#2130
1!
1+
1$
b10 5
13
1)
1.
#2140
0!
0+
#2150
1!
1+
b100 2
b11 5
b100 (
#2160
0!
0+
#2170
1!
1+
0$
0#
b1 5
03
0)
0-
0.
